1 10 20
100 200 125
201 210 89
900 1000 174
8000 9500 260
900 1000 174
10 1 20
4926 348 238
5390 7164 262
2985 1002 217
9076 150 262
4764 1624 238
8244 9201 247
8918 7891 252
7433 6789 257
6701 5795 262
1923 1916 144
9957 2591 262
7125 1836 262
1138 3315 217
9280 7737 260
1841 5970 238
6058 5957 187
7663 1790 262
4399 7435 262
2981 8474 262
5836 1619 238
5684 4358 236
173 9669 262
9820 7180 260
3129 3753 238
2174 1433 180
6366 1384 262
7698 2462 262
5639 4264 236
3742 3812 176
4350 7374 262
499 1292 182
5353 9573 262
4287 2588 238
414 5287 238
8305 3506 262
4420 7178 262
3607 9647 262
8294 5997 262
2056 5381 238
7927 7414 239
9640 1405 262
1370 1259 177
4300 6734 262
556 1682 182
918 3074 217
9244 4179 262
1705 6176 262
6278 3393 262
2476 1808 209
2671 9158 262
8122 6085 262
890 8268 262
2687 5387 238
8971 2448 262
6057 2351 238
4448 2754 238
7877 2946 262
9733 6083 262
2004 3272 217
2411 8317 262
7740 1031 262
4042 6901 262
543 6894 262
6776 4401 262
7812 1845 262
6209 8359 257
9515 5892 262
3536 9100 262
508 8191 262
7721 7520 177
4050 7341 262
8713 6722 257
8483 411 262
4395 8116 262
2046 5870 238
7113 6193 257
8284 9776 260
637 2893 209
2263 2840 209
3399 5684 238
2846 9852 262
7576 1991 262
1123 4419 238
2549 6155 238
8893 8304 234
1936 4414 238
1858 3760 238
3507 6478 262
147 6971 262
2178 2682 209
5175 8714 262
7574 3418 262
865 1526 182
7672 2555 262
5348 6888 262
6132 3179 238
8241 8863 234
6192 9458 260
1974 6695 262
2084 991 182
7905 3368 262
5666 941 238
5072 7839 262
7259 1447 262
4050 5570 236
2726 5559 238
5289 131 238
9014 4615 262
368 7803 262
4347 3145 238
8635 6990 252
9814 3084 262
4482 6748 262
6464 4165 262
9430 1789 262
4545 12 238
7204 7600 239
9559 4996 262
4604 1725 238
4865 5394 210
5041 8432 262
5264 3479 238
8133 7518 252
6999 480 262
8023 6575 257
7996 7417 252
3188 3469 181
8797 880 262
2244 5289 238
2504 2218 209
1285 6157 238
5785 7167 262
5286 8469 262
8882 1524 262
4875 5865 236
2655 7375 262
6249 5782 262
1113 2578 209
5468 4931 197
9340 5656 262
3595 7178 262
8053 9414 260
7883 2048 262
9380 1013 262
7590 1704 262
3113 5832 238
1756 8067 262
6137 2794 238
272 2961 217
